<?xml version="1.0" encoding="UTF-8"?>
<svg width="617px" height="617px" viewBox="0 0 617 617" version="1.1" xmlns="http://www.w3.org/2000/svg" xmlns:xlink="http://www.w3.org/1999/xlink">
    <!-- Generator: Sketch 41.2 (35397) - http://www.bohemiancoding.com/sketch -->
    <title>Layouts</title>
    <desc>Created with Sketch.</desc>
    <defs></defs>
    <g id="Icon" stroke="none" stroke-width="1" fill="none" fill-rule="evenodd">
        <path d="M308.5,617 C478.879845,617 617,478.879845 617,308.5 C617,138.120155 478.879845,0 308.5,0 C138.120155,0 0,138.120155 0,308.5 C0,478.879845 138.120155,617 308.5,617 Z M459.001903,144 C481.092242,144 499,161.909439 499,184.008665 L499,301.991335 C499,324.087511 481.081512,342 459.001903,342 L424.117901,342 C402.027562,342 384.119804,324.090561 384.119804,301.991335 L384.119804,184.008665 C384.119804,161.912489 402.038292,144 424.117901,144 L459.001903,144 Z M325.439654,144 C347.531289,144 365.440098,161.909439 365.440098,184.008665 L365.440098,301.991335 C365.440098,324.087511 347.529749,342 325.439654,342 L157.440542,342 C135.348907,342 117.440098,324.090561 117.440098,301.991335 L117.440098,184.008665 C117.440098,161.912489 135.350447,144 157.440542,144 L325.439654,144 Z M458.997589,360 C481.090311,360 499,377.906525 499,399.991782 L499,434.008218 C499,456.095069 481.08286,474 458.997589,474 L290.562313,474 C268.469591,474 250.559902,456.093475 250.559902,434.008218 L250.559902,399.991782 C250.559902,377.904931 268.477042,360 290.562313,360 L458.997589,360 Z M174.880196,359.750611 C206.360426,359.750611 231.880196,385.263459 231.880196,416.750611 C231.880196,448.230842 206.367348,473.750611 174.880196,473.750611 C143.399965,473.750611 117.880196,448.237764 117.880196,416.750611 C117.880196,385.270381 143.393043,359.750611 174.880196,359.750611 Z" id="Layouts" fill="#000000"></path>
    </g>
</svg>