<?xml version="1.0" encoding="UTF-8"?>
<svg width="221px" height="80px" viewBox="0 0 221 80" version="1.1" xmlns="http://www.w3.org/2000/svg" xmlns:xlink="http://www.w3.org/1999/xlink">
    <!-- Generator: Sketch 41.2 (35397) - http://www.bohemiancoding.com/sketch -->
    <title>Image-pos-right</title>
    <desc>Created with Sketch.</desc>
    <defs></defs>
    <g id="Page-1" stroke="none" stroke-width="1" fill="none" fill-rule="evenodd">
        <g id="image-pos-right" fill="#8F98A3">
            <path d="M91,0 L221,0 L221,80 L91,80 L91,0 Z M173.5625,21 L139.4375,21 C138.090172,21 137,22.0901719 137,23.4375 L137,57.5625 C137,58.9098281 138.090172,60 139.4375,60 L173.5625,60 C174.909828,60 176,58.9098281 176,57.5625 L176,23.4375 C176,22.0901719 174.909828,21 173.5625,21 Z M154.133797,55.125 L163.847844,45.4109531 L171.125,52.6875 L171.125,55.125 L154.133797,55.125 Z M141.875,25.875 L171.125,25.875 L171.125,45.79425 L165.571766,40.2410156 C164.619922,39.291 163.076984,39.291 162.125141,40.2410156 L147.240547,55.125 L141.875,55.125 L141.875,25.875 Z M151.625,40.5 C154.317388,40.5 156.5,38.3173882 156.5,35.625 C156.5,32.9326118 154.317388,30.75 151.625,30.75 C148.932612,30.75 146.75,32.9326118 146.75,35.625 C146.75,38.3173882 148.932612,40.5 151.625,40.5 Z M0,54 L39,54 L39,58 L0,58 L0,54 Z M0,45.5 L78,45.5 L78,49.5 L0,49.5 L0,45.5 Z M0,37 L78,37 L78,41 L0,41 L0,37 Z M0,28.5 L78,28.5 L78,32.5 L0,32.5 L0,28.5 Z M0,20 L78,20 L78,24 L0,24 L0,20 Z M27,73.9981014 C27,72.8945804 27.8970262,72 29.0049466,72 L48.9950534,72 C50.1023548,72 51,72.8867064 51,73.9981014 L51,78.0018986 C51,79.1054196 50.1029738,80 48.9950534,80 L29.0049466,80 C27.8976452,80 27,79.1132936 27,78.0018986 L27,73.9981014 Z M0,0 L78,0 L78,11 L0,11 L0,0 Z" id="Combined-Shape"></path>
        </g>
    </g>
</svg>
