<?xml version="1.0" encoding="UTF-8"?>
<svg width="221px" height="136px" viewBox="0 0 221 136" version="1.1" xmlns="http://www.w3.org/2000/svg" xmlns:xlink="http://www.w3.org/1999/xlink">
    <!-- Generator: Sketch 43.2 (39069) - http://www.bohemiancoding.com/sketch -->
    <title>quote-left</title>
    <desc>Created with Sketch.</desc>
    <defs></defs>
    <g id="Page-1" stroke="none" stroke-width="1" fill="none" fill-rule="evenodd">
        <g id="quote-left" fill-rule="nonzero" fill="#8F98A3">
            <rect id="Rectangle-path" x="51" y="62" width="58" height="6"></rect>
            <rect id="Rectangle-path" x="51" y="42" width="120" height="15"></rect>
        </g>
    </g>
</svg>