<?xml version="1.0" encoding="UTF-8"?>
<svg width="190px" height="80px" viewBox="0 0 190 80" version="1.1" xmlns="http://www.w3.org/2000/svg" xmlns:xlink="http://www.w3.org/1999/xlink">
    <!-- Generator: Sketch 41.2 (35397) - http://www.bohemiancoding.com/sketch -->
    <title>three_column_main_left</title>
    <desc>Created with Sketch.</desc>
    <defs></defs>
    <g id="Page-2" stroke="none" stroke-width="1" fill="none" fill-rule="evenodd">
        <g id="three-column-main-left" fill="#8F98A3">
            <rect id="Rectangle-Copy-2" x="0" y="0" width="90" height="80"></rect>
            <rect id="Rectangle-Copy-3" x="100" y="0" width="40" height="80"></rect>
            <rect id="Rectangle-Copy-5" x="150" y="0" width="40" height="80"></rect>
        </g>
    </g>
</svg>
