<?xml version="1.0" encoding="UTF-8"?>
<svg width="221px" height="136px" viewBox="0 0 221 136" version="1.1" xmlns="http://www.w3.org/2000/svg" xmlns:xlink="http://www.w3.org/1999/xlink">
    <!-- Generator: Sketch 41.2 (35397) - http://www.bohemiancoding.com/sketch -->
    <title>video</title>
    <desc>Created with Sketch.</desc>
    <defs></defs>
    <g id="Page-1" stroke="none" stroke-width="1" fill="none" fill-rule="evenodd">
        <g id="video" fill="#8F98A3">
            <path d="M0,0 L221,0 L221,136 L0,136 L0,0 Z M128,68 L90,87 L90,49 L128,68 Z" id="Combined-Shape"></path>
        </g>
    </g>
</svg>